Mon, 06 Apr 2020 13:40:51 GMT
Mon, 06 Apr 2020 13:40:54 GMT
Mon, 06 Apr 2020 13:40:57 GMT
Mon, 06 Apr 2020 13:41:00 GMT
Secret message is:
"Volume bind mount is easy"
Mon, 06 Apr 2020 13:41:06 GMT
Mon, 06 Apr 2020 13:41:09 GMT
Mon, 06 Apr 2020 13:41:12 GMT
Mon, 06 Apr 2020 13:41:15 GMT
Secret message is:
"Volume bind mount is easy"
Mon, 06 Apr 2020 13:41:21 GMT
Mon, 06 Apr 2020 13:41:24 GMT
Mon, 06 Apr 2020 13:41:27 GMT
Mon, 06 Apr 2020 13:41:30 GMT
Secret message is:
"Volume bind mount is easy"
Mon, 06 Apr 2020 13:41:36 GMT
